[
  {
    "id":1,
    "street":"Архипова",
    "house":"15"
  },
  {
    "id":2,
    "street":"Архипова",
    "house":"17"
  },
  {
    "id":3,
    "street":"Архипова",
    "house":"19"
  },
  {
    "id":4,
    "street":"Больничная",
    "house":"12"
  },
  {
    "id":5,
    "street":"Больничная",
    "house":"14"
  },
  {
    "id":6,
    "street":"Больничная",
    "house":"15"
  },
  {
    "id":7,
    "street":"Больничная",
    "house":"16"
  },
  {
    "id":8,
    "street":"Больничная",
    "house":"17"
  },
  {
    "id":9,
    "street":"Больничная",
    "house":"19"
  },
  {
    "id":10,
    "street":"Больничная",
    "house":"21"
  },
  {
    "id":11,
    "street":"Больничная",
    "house":"23"
  },
  {
    "id":12,
    "street":"Больничная",
    "house":"25"
  },
  {
    "id":13,
    "street":"Больничная",
    "house":"27"
  },
  {
    "id":14,
    "street":"Ворошиловоградская",
    "house":"5"
  },
  {
    "id":15,
    "street":"Гардина",
    "house":"1"
  },
  {
    "id":16,
    "street":"Гардина",
    "house":"10"
  },
  {
    "id":17,
    "street":"Гардина",
    "house":"5"
  },
  {
    "id":18,
    "street":"Гардина",
    "house":"7"
  },
  {
    "id":19,
    "street":"Гардина",
    "house":"8"
  },
  {
    "id":20,
    "street":"Гардина",
    "house":"9"
  },
  {
    "id":21,
    "street":"Житкова",
    "house":"4"
  },
  {
    "id":22,
    "street":"Загородная",
    "house":"12"
  },
  {
    "id":23,
    "street":"Загородная",
    "house":"17"
  },
  {
    "id":24,
    "street":"Загородная",
    "house":"19"
  },
  {
    "id":25,
    "street":"Загородная",
    "house":"2"
  },
  {
    "id":26,
    "street":"Загородная",
    "house":"25"
  },
  {
    "id":27,
    "street":"Загородная",
    "house":"4"
  },
  {
    "id":28,
    "street":"Загородная",
    "house":"8"
  },
  {
    "id":29,
    "street":"Комсомольская",
    "house":"1"
  },
  {
    "id":30,
    "street":"Мушкетовская",
    "house":"11"
  },
  {
    "id":31,
    "street":"Мушкетовская",
    "house":"12"
  },
  {
    "id":32,
    "street":"Мушкетовская",
    "house":"13"
  },
  {
    "id":33,
    "street":"Мушкетовская",
    "house":"14"
  },
  {
    "id":34,
    "street":"Мушкетовская",
    "house":"19"
  },
  {
    "id":35,
    "street":"Мушкетовская",
    "house":"20"
  },
  {
    "id":36,
    "street":"Никитовское Шоссе",
    "house":"11"
  },
  {
    "id":37,
    "street":"Никитовское Шоссе",
    "house":"7"
  },
  {
    "id":38,
    "street":"Никитовское Шоссе",
    "house":"9"
  },
  {
    "id":39,
    "street":"Советской Армии",
    "house":"3"
  },
  {
    "id":40,
    "street":"Советской Армии",
    "house":"4"
  },
  {
    "id":41,
    "street":"Школьный",
    "house":"10"
  },
  {
    "id":42,
    "street":"Школьный",
    "house":"11"
  },
  {
    "id":43,
    "street":"Школьный",
    "house":"2"
  },
  {
    "id":44,
    "street":"Школьный",
    "house":"4"
  },
  {
    "id":45,
    "street":"Школьный",
    "house":"8"
  },
  {
    "id":46,
    "street":"Школьный",
    "house":"9"
  },
  {
    "id":47,
    "street":"Автотранспортников",
    "house":"1"
  },
  {
    "id":48,
    "street":"Автотранспортников",
    "house":"1а"
  },
  {
    "id":49,
    "street":"Антипова",
    "house":"1"
  },
  {
    "id":50,
    "street":"Аравийская",
    "house":"10"
  },
  {
    "id":51,
    "street":"Аравийская",
    "house":"11"
  },
  {
    "id":52,
    "street":"Аравийская",
    "house":"2"
  },
  {
    "id":53,
    "street":"Аравийская",
    "house":"4"
  },
  {
    "id":54,
    "street":"Аравийская",
    "house":"5"
  },
  {
    "id":55,
    "street":"Аравийская",
    "house":"6в"
  },
  {
    "id":56,
    "street":"Аравийская",
    "house":"7"
  },
  {
    "id":57,
    "street":"Аравийская",
    "house":"8"
  },
  {
    "id":58,
    "street":"Артема",
    "house":"1а"
  },
  {
    "id":59,
    "street":"Артема",
    "house":"100"
  },
  {
    "id":60,
    "street":"Артема",
    "house":"102"
  },
  {
    "id":61,
    "street":"Артема",
    "house":"102а"
  },
  {
    "id":62,
    "street":"Артема",
    "house":"102б"
  },
  {
    "id":63,
    "street":"Артема",
    "house":"104"
  },
  {
    "id":64,
    "street":"Артема",
    "house":"104а"
  },
  {
    "id":65,
    "street":"Артема",
    "house":"108"
  },
  {
    "id":66,
    "street":"Артема",
    "house":"110"
  },
  {
    "id":67,
    "street":"Артема",
    "house":"112"
  },
  {
    "id":68,
    "street":"Артема",
    "house":"114"
  },
  {
    "id":69,
    "street":"Артема",
    "house":"116"
  },
  {
    "id":70,
    "street":"Артема",
    "house":"116а"
  },
  {
    "id":71,
    "street":"Артема",
    "house":"118"
  },
  {
    "id":72,
    "street":"Артема",
    "house":"118а"
  },
  {
    "id":73,
    "street":"Артема",
    "house":"118б"
  },
  {
    "id":74,
    "street":"Артема",
    "house":"119"
  },
  {
    "id":75,
    "street":"Артема",
    "house":"120"
  },
  {
    "id":76,
    "street":"Артема",
    "house":"122"
  },
  {
    "id":77,
    "street":"Артема",
    "house":"125"
  },
  {
    "id":78,
    "street":"Артема",
    "house":"125/2"
  },
  {
    "id":79,
    "street":"Артема",
    "house":"127"
  },
  {
    "id":80,
    "street":"Артема",
    "house":"133б"
  },
  {
    "id":81,
    "street":"Артема",
    "house":"137"
  },
  {
    "id":82,
    "street":"Артема",
    "house":"142"
  },
  {
    "id":83,
    "street":"Артема",
    "house":"144а"
  },
  {
    "id":84,
    "street":"Артема",
    "house":"145а"
  },
  {
    "id":85,
    "street":"Артема",
    "house":"146"
  },
  {
    "id":86,
    "street":"Артема",
    "house":"148"
  },
  {
    "id":87,
    "street":"Артема",
    "house":"150"
  },
  {
    "id":88,
    "street":"Артема",
    "house":"152"
  },
  {
    "id":89,
    "street":"Артема",
    "house":"154"
  },
  {
    "id":90,
    "street":"Артема",
    "house":"154б"
  },
  {
    "id":91,
    "street":"Артема",
    "house":"156"
  },
  {
    "id":92,
    "street":"Артема",
    "house":"158"
  },
  {
    "id":93,
    "street":"Артема",
    "house":"159"
  },
  {
    "id":94,
    "street":"Артема",
    "house":"161"
  },
  {
    "id":95,
    "street":"Артема",
    "house":"163"
  },
  {
    "id":96,
    "street":"Артема",
    "house":"163а"
  },
  {
    "id":97,
    "street":"Артема",
    "house":"163б"
  },
  {
    "id":98,
    "street":"Артема",
    "house":"165"
  },
  {
    "id":99,
    "street":"Артема",
    "house":"167"
  },
  {
    "id":100,
    "street":"Артема",
    "house":"169"
  },
  {
    "id":101,
    "street":"Артема",
    "house":"169а"
  },
  {
    "id":102,
    "street":"Артема",
    "house":"169б"
  },
  {
    "id":103,
    "street":"Артема",
    "house":"169в"
  },
  {
    "id":104,
    "street":"Артема",
    "house":"169е"
  },
  {
    "id":105,
    "street":"Артема",
    "house":"171"
  },
  {
    "id":106,
    "street":"Артема",
    "house":"43"
  },
  {
    "id":107,
    "street":"Артема",
    "house":"45"
  },
  {
    "id":108,
    "street":"Артема",
    "house":"58а"
  },
  {
    "id":109,
    "street":"Артема",
    "house":"58б"
  },
  {
    "id":110,
    "street":"Артема",
    "house":"64"
  },
  {
    "id":111,
    "street":"Артема",
    "house":"66"
  },
  {
    "id":112,
    "street":"Артема",
    "house":"70"
  },
  {
    "id":113,
    "street":"Артема",
    "house":"72а"
  },
  {
    "id":114,
    "street":"Артема",
    "house":"72б"
  },
  {
    "id":115,
    "street":"Артема",
    "house":"75/77"
  },
  {
    "id":116,
    "street":"Артема",
    "house":"76"
  },
  {
    "id":117,
    "street":"Артема",
    "house":"79"
  },
  {
    "id":118,
    "street":"Артема",
    "house":"80а"
  },
  {
    "id":119,
    "street":"Артема",
    "house":"84а"
  },
  {
    "id":120,
    "street":"Артема",
    "house":"86"
  },
  {
    "id":121,
    "street":"Артема",
    "house":"86а"
  },
  {
    "id":122,
    "street":"Артема",
    "house":"88а"
  },
  {
    "id":123,
    "street":"Артема",
    "house":"90"
  },
  {
    "id":124,
    "street":"Артема",
    "house":"92"
  },
  {
    "id":125,
    "street":"Артема",
    "house":"96б"
  },
  {
    "id":126,
    "street":"Барнаульская",
    "house":"59"
  },
  {
    "id":127,
    "street":"Батищева",
    "house":"11"
  },
  {
    "id":128,
    "street":"Батищева",
    "house":"11а"
  },
  {
    "id":129,
    "street":"Батищева",
    "house":"13"
  },
  {
    "id":130,
    "street":"Батищева",
    "house":"15"
  },
  {
    "id":131,
    "street":"Батищева",
    "house":"5а"
  },
  {
    "id":132,
    "street":"Батищева",
    "house":"7"
  },
  {
    "id":133,
    "street":"Батищева",
    "house":"9"
  },
  {
    "id":134,
    "street":"Батищева",
    "house":"9а"
  },
  {
    "id":135,
    "street":"Богдана Хмельницкого",
    "house":"69"
  },
  {
    "id":136,
    "street":"Богдана Хмельницкого",
    "house":"71б"
  },
  {
    "id":137,
    "street":"Богдана Хмельницкого",
    "house":"83"
  },
  {
    "id":138,
    "street":"Богдана Хмельницкого",
    "house":"85"
  },
  {
    "id":139,
    "street":"Богдана Хмельницкого",
    "house":"88"
  },
  {
    "id":140,
    "street":"Богдана Хмельницкого",
    "house":"90"
  },
  {
    "id":141,
    "street":"Богдана Хмельницкого",
    "house":"92"
  },
  {
    "id":142,
    "street":"Богдана Хмельницкого",
    "house":"98"
  },
  {
    "id":143,
    "street":"Бурденко",
    "house":"29"
  },
  {
    "id":144,
    "street":"Бурденко",
    "house":"42"
  },
  {
    "id":145,
    "street":"Бурденко",
    "house":"44"
  },
  {
    "id":146,
    "street":"Бурденко ул. ",
    "house":"22"
  },
  {
    "id":147,
    "street":"Ватутина",
    "house":"1"
  },
  {
    "id":148,
    "street":"Ватутина",
    "house":"18"
  },
  {
    "id":149,
    "street":"Ватутина",
    "house":"19"
  },
  {
    "id":150,
    "street":"Ватутина",
    "house":"20"
  },
  {
    "id":151,
    "street":"Ватутина",
    "house":"20а"
  },
  {
    "id":152,
    "street":"Ватутина",
    "house":"21"
  },
  {
    "id":153,
    "street":"Ватутина",
    "house":"22"
  },
  {
    "id":154,
    "street":"Ватутина",
    "house":"23"
  },
  {
    "id":155,
    "street":"Ватутина",
    "house":"3"
  },
  {
    "id":156,
    "street":"Ватутина",
    "house":"3б"
  },
  {
    "id":157,
    "street":"Ватутина",
    "house":"33"
  },
  {
    "id":158,
    "street":"Ватутина",
    "house":"33а"
  },
  {
    "id":159,
    "street":"Ватутина",
    "house":"37"
  },
  {
    "id":160,
    "street":"Ватутина",
    "house":"37а"
  },
  {
    "id":161,
    "street":"Ватутина",
    "house":"39"
  },
  {
    "id":162,
    "street":"Ватутина",
    "house":"41"
  },
  {
    "id":163,
    "street":"Ватутина",
    "house":"42"
  },
  {
    "id":164,
    "street":"Ватутина",
    "house":"43"
  },
  {
    "id":165,
    "street":"Ватутина",
    "house":"44"
  },
  {
    "id":166,
    "street":"Ватутина",
    "house":"46"
  },
  {
    "id":167,
    "street":"Ватутина",
    "house":"5"
  },
  {
    "id":168,
    "street":"Ватутина",
    "house":"6/49"
  },
  {
    "id":169,
    "street":"Владычанского",
    "house":"31"
  },
  {
    "id":170,
    "street":"Владычанского",
    "house":"33"
  },
  {
    "id":171,
    "street":"Владычанского",
    "house":"35"
  },
  {
    "id":172,
    "street":"Владычанского",
    "house":"36"
  },
  {
    "id":173,
    "street":"Владычанского",
    "house":"38"
  },
  {
    "id":174,
    "street":"Владычанского",
    "house":"39"
  },
  {
    "id":175,
    "street":"Владычанского",
    "house":"40"
  },
  {
    "id":176,
    "street":"Владычанского",
    "house":"42"
  },
  {
    "id":177,
    "street":"Владычанского",
    "house":"43"
  },
  {
    "id":178,
    "street":"Владычанского",
    "house":"44"
  },
  {
    "id":179,
    "street":"Гатчинская",
    "house":"5"
  },
  {
    "id":180,
    "street":"Гатчинская",
    "house":"7"
  },
  {
    "id":181,
    "street":"Гатчинская",
    "house":"9"
  },
  {
    "id":182,
    "street":"Генерала Антонова",
    "house":"1"
  },
  {
    "id":183,
    "street":"Генерала Антонова",
    "house":"5"
  },
  {
    "id":184,
    "street":"Генерала Антонова",
    "house":"6"
  },
  {
    "id":185,
    "street":"Генерала Антонова",
    "house":"7"
  },
  {
    "id":186,
    "street":"Генерала Антонова",
    "house":"9"
  },
  {
    "id":187,
    "street":"Герцена",
    "house":"18"
  },
  {
    "id":188,
    "street":"Герцена",
    "house":"32"
  },
  {
    "id":189,
    "street":"Герцена",
    "house":"57"
  },
  {
    "id":190,
    "street":"Герцена",
    "house":"65"
  },
  {
    "id":191,
    "street":"Герцена",
    "house":"67"
  },
  {
    "id":192,
    "street":"Герцена",
    "house":"69"
  },
  {
    "id":193,
    "street":"Герцена",
    "house":"71"
  },
  {
    "id":194,
    "street":"Горького",
    "house":"146"
  },
  {
    "id":195,
    "street":"Горького",
    "house":"150"
  },
  {
    "id":196,
    "street":"Горького",
    "house":"152"
  },
  {
    "id":197,
    "street":"Горького",
    "house":"154"
  },
  {
    "id":198,
    "street":"Горького",
    "house":"156"
  },
  {
    "id":199,
    "street":"Горького",
    "house":"158"
  },
  {
    "id":200,
    "street":"Горького",
    "house":"159"
  },
  {
    "id":201,
    "street":"Гринкевича",
    "house":"2"
  },
  {
    "id":202,
    "street":"Гринкевича",
    "house":"3"
  },
  {
    "id":203,
    "street":"Гринкевича",
    "house":"4"
  },
  {
    "id":204,
    "street":"Гринкевича",
    "house":"5"
  },
  {
    "id":205,
    "street":"Гринкевича",
    "house":"6"
  },
  {
    "id":206,
    "street":"Гринкевича",
    "house":"7"
  },
  {
    "id":207,
    "street":"Гринкевича",
    "house":"8"
  },
  {
    "id":208,
    "street":"Гринкевича",
    "house":"9"
  },
  {
    "id":209,
    "street":"Гурова",
    "house":"1"
  },
  {
    "id":210,
    "street":"Гурова",
    "house":"18"
  },
  {
    "id":211,
    "street":"Гурова",
    "house":"2"
  },
  {
    "id":212,
    "street":"Гурова",
    "house":"20"
  },
  {
    "id":213,
    "street":"Гурова",
    "house":"4"
  },
  {
    "id":214,
    "street":"Гурова",
    "house":"5"
  },
  {
    "id":215,
    "street":"Гурова",
    "house":"7"
  },
  {
    "id":216,
    "street":"Гурова",
    "house":"9"
  },
  {
    "id":217,
    "street":"Гутченко",
    "house":"23"
  },
  {
    "id":218,
    "street":"Гутченко",
    "house":"24а"
  },
  {
    "id":219,
    "street":"Гутченко",
    "house":"27"
  },
  {
    "id":220,
    "street":"Дзержинского",
    "house":"10"
  },
  {
    "id":221,
    "street":"Дзержинского",
    "house":"12"
  },
  {
    "id":222,
    "street":"Дзержинского",
    "house":"2"
  },
  {
    "id":223,
    "street":"Дзержинского",
    "house":"2а"
  },
  {
    "id":224,
    "street":"Дзержинского",
    "house":"4"
  },
  {
    "id":225,
    "street":"Дзержинского",
    "house":"4а"
  },
  {
    "id":226,
    "street":"Дзержинского",
    "house":"6"
  },
  {
    "id":227,
    "street":"Дзержинского",
    "house":"6а"
  },
  {
    "id":228,
    "street":"Дзержинского",
    "house":"65"
  },
  {
    "id":229,
    "street":"Дзержинского",
    "house":"65а"
  },
  {
    "id":230,
    "street":"Дзержинского",
    "house":"66б"
  },
  {
    "id":231,
    "street":"Дзержинского",
    "house":"67"
  },
  {
    "id":232,
    "street":"Дзержинского",
    "house":"67а"
  },
  {
    "id":233,
    "street":"Дзержинского",
    "house":"69"
  },
  {
    "id":234,
    "street":"Дзержинского",
    "house":"69а"
  },
  {
    "id":235,
    "street":"Дзержинского",
    "house":"69б"
  },
  {
    "id":236,
    "street":"Дзержинского",
    "house":"8"
  },
  {
    "id":237,
    "street":"Дзержинского",
    "house":"8а"
  },
  {
    "id":238,
    "street":"Звягильского",
    "house":"52"
  },
  {
    "id":239,
    "street":"Звягильского",
    "house":"54"
  },
  {
    "id":240,
    "street":"Звягильского",
    "house":"56"
  },
  {
    "id":241,
    "street":"Звягильского",
    "house":"57"
  },
  {
    "id":242,
    "street":"Звягильского",
    "house":"59"
  },
  {
    "id":243,
    "street":"Изюмовская",
    "house":"36"
  },
  {
    "id":244,
    "street":"Изюмовская",
    "house":"9а"
  },
  {
    "id":245,
    "street":"Изюмовская",
    "house":"9б"
  },
  {
    "id":246,
    "street":"Ильича",
    "house":"1"
  },
  {
    "id":247,
    "street":"Ильича",
    "house":"101а"
  },
  {
    "id":248,
    "street":"Ильича",
    "house":"11"
  },
  {
    "id":249,
    "street":"Ильича",
    "house":"13"
  },
  {
    "id":250,
    "street":"Ильича",
    "house":"15"
  },
  {
    "id":251,
    "street":"Ильича",
    "house":"19"
  },
  {
    "id":252,
    "street":"Ильича",
    "house":"19з"
  },
  {
    "id":253,
    "street":"Ильича",
    "house":"2"
  },
  {
    "id":254,
    "street":"Ильича",
    "house":"20"
  },
  {
    "id":255,
    "street":"Ильича",
    "house":"21а"
  },
  {
    "id":256,
    "street":"Ильича",
    "house":"22"
  },
  {
    "id":257,
    "street":"Ильича",
    "house":"24"
  },
  {
    "id":258,
    "street":"Ильича",
    "house":"25"
  },
  {
    "id":259,
    "street":"Ильича",
    "house":"26"
  },
  {
    "id":260,
    "street":"Ильича",
    "house":"27"
  },
  {
    "id":261,
    "street":"Ильича",
    "house":"28"
  },
  {
    "id":262,
    "street":"Ильича",
    "house":"29"
  },
  {
    "id":263,
    "street":"Ильича",
    "house":"30"
  },
  {
    "id":264,
    "street":"Ильича",
    "house":"32"
  },
  {
    "id":265,
    "street":"Ильича",
    "house":"36"
  },
  {
    "id":266,
    "street":"Ильича",
    "house":"4"
  },
  {
    "id":267,
    "street":"Ильича",
    "house":"4а"
  },
  {
    "id":268,
    "street":"Ильича",
    "house":"40"
  },
  {
    "id":269,
    "street":"Ильича",
    "house":"42"
  },
  {
    "id":270,
    "street":"Ильича",
    "house":"52"
  },
  {
    "id":271,
    "street":"Ильича",
    "house":"54"
  },
  {
    "id":272,
    "street":"Ильича",
    "house":"54а"
  },
  {
    "id":273,
    "street":"Ильича",
    "house":"56"
  },
  {
    "id":274,
    "street":"Ильича",
    "house":"58"
  },
  {
    "id":275,
    "street":"Ильича",
    "house":"58а"
  },
  {
    "id":276,
    "street":"Ильича",
    "house":"6"
  },
  {
    "id":277,
    "street":"Ильича",
    "house":"6а"
  },
  {
    "id":278,
    "street":"Ильича",
    "house":"7"
  },
  {
    "id":279,
    "street":"Ильича",
    "house":"74"
  },
  {
    "id":280,
    "street":"Ильича",
    "house":"76"
  },
  {
    "id":281,
    "street":"Ильича",
    "house":"78"
  },
  {
    "id":282,
    "street":"Ильича",
    "house":"79"
  },
  {
    "id":283,
    "street":"Ильича",
    "house":"8"
  },
  {
    "id":284,
    "street":"Ильича",
    "house":"80"
  },
  {
    "id":285,
    "street":"Ильича",
    "house":"81"
  },
  {
    "id":286,
    "street":"Ильича",
    "house":"83"
  },
  {
    "id":287,
    "street":"Ильича",
    "house":"83а"
  },
  {
    "id":288,
    "street":"Ильича",
    "house":"84"
  },
  {
    "id":289,
    "street":"Ильича",
    "house":"85"
  },
  {
    "id":290,
    "street":"Ильича",
    "house":"86"
  },
  {
    "id":291,
    "street":"Ильича",
    "house":"89"
  },
  {
    "id":292,
    "street":"Ильича",
    "house":"9"
  },
  {
    "id":293,
    "street":"Ильича",
    "house":"90"
  },
  {
    "id":294,
    "street":"Ильича",
    "house":"90а"
  },
  {
    "id":295,
    "street":"Ильича",
    "house":"90б"
  },
  {
    "id":296,
    "street":"Ильича",
    "house":"91"
  },
  {
    "id":297,
    "street":"Ильича",
    "house":"92"
  },
  {
    "id":298,
    "street":"Ильича",
    "house":"92а"
  },
  {
    "id":299,
    "street":"Ильича",
    "house":"92б"
  },
  {
    "id":300,
    "street":"Ильича",
    "house":"93"
  },
  {
    "id":301,
    "street":"Ильича",
    "house":"94"
  },
  {
    "id":302,
    "street":"Ильича",
    "house":"96"
  },
  {
    "id":303,
    "street":"Ильича",
    "house":"96а"
  },
  {
    "id":304,
    "street":"Ильича",
    "house":"98"
  },
  {
    "id":305,
    "street":"Ильича",
    "house":"98а"
  },
  {
    "id":306,
    "street":"Интернациональная",
    "house":"32"
  },
  {
    "id":307,
    "street":"Ионина",
    "house":"16"
  },
  {
    "id":308,
    "street":"Ионина",
    "house":"22"
  },
  {
    "id":309,
    "street":"Ионина",
    "house":"23"
  },
  {
    "id":310,
    "street":"Ионина",
    "house":"24"
  },
  {
    "id":311,
    "street":"Ионина",
    "house":"9"
  },
  {
    "id":312,
    "street":"Ионова",
    "house":"20"
  },
  {
    "id":313,
    "street":"Ионова",
    "house":"8"
  },
  {
    "id":314,
    "street":"Кадиевская",
    "house":"10"
  },
  {
    "id":315,
    "street":"Кадиевская",
    "house":"12"
  },
  {
    "id":316,
    "street":"Кадиевская",
    "house":"4"
  },
  {
    "id":317,
    "street":"Кадиевская",
    "house":"6"
  },
  {
    "id":318,
    "street":"Кадиевская",
    "house":"8"
  },
  {
    "id":319,
    "street":"Калашникова",
    "house":"16"
  },
  {
    "id":320,
    "street":"Калашникова",
    "house":"17"
  },
  {
    "id":321,
    "street":"Калашникова",
    "house":"21"
  },
  {
    "id":322,
    "street":"Калужская",
    "house":"28"
  },
  {
    "id":323,
    "street":"Калужская",
    "house":"32"
  },
  {
    "id":324,
    "street":"Калужская",
    "house":"34"
  },
  {
    "id":325,
    "street":"Калужская",
    "house":"36"
  },
  {
    "id":326,
    "street":"Капитана Ратникова",
    "house":"10"
  },
  {
    "id":327,
    "street":"Капитана Ратникова",
    "house":"14"
  },
  {
    "id":328,
    "street":"Капитана Ратникова",
    "house":"18"
  },
  {
    "id":329,
    "street":"Капитана Ратникова",
    "house":"20"
  },
  {
    "id":330,
    "street":"Капитана Ратникова",
    "house":"22"
  },
  {
    "id":331,
    "street":"Капитана Ратникова",
    "house":"24"
  },
  {
    "id":332,
    "street":"Капитана Ратникова",
    "house":"26"
  },
  {
    "id":333,
    "street":"Капитана Ратникова",
    "house":"28"
  },
  {
    "id":334,
    "street":"Капитана Ратникова",
    "house":"30"
  },
  {
    "id":335,
    "street":"Капитана Ратникова",
    "house":"4"
  },
  {
    "id":336,
    "street":"Капитана Ратникова",
    "house":"4а"
  },
  {
    "id":337,
    "street":"Капитана Ратникова",
    "house":"6"
  },
  {
    "id":338,
    "street":"Капитана Ратникова",
    "house":"6а"
  },
  {
    "id":339,
    "street":"Капитана Ратникова",
    "house":"8"
  },
  {
    "id":340,
    "street":"Капитана Ратникова",
    "house":"8а"
  },
  {
    "id":341,
    "street":"Карпинского",
    "house":"25"
  },
  {
    "id":342,
    "street":"Киевский",
    "house":"1а"
  },
  {
    "id":343,
    "street":"Киевский",
    "house":"1б"
  },
  {
    "id":344,
    "street":"Киевский",
    "house":"12"
  },
  {
    "id":345,
    "street":"Киевский",
    "house":"16"
  },
  {
    "id":346,
    "street":"Киевский",
    "house":"2"
  },
  {
    "id":347,
    "street":"Киевский",
    "house":"20"
  },
  {
    "id":348,
    "street":"Киевский",
    "house":"23"
  },
  {
    "id":349,
    "street":"Киевский",
    "house":"26"
  },
  {
    "id":350,
    "street":"Киевский",
    "house":"3а"
  },
  {
    "id":351,
    "street":"Киевский",
    "house":"3б"
  },
  {
    "id":352,
    "street":"Киевский",
    "house":"32"
  },
  {
    "id":353,
    "street":"Киевский",
    "house":"36а"
  },
  {
    "id":354,
    "street":"Киевский",
    "house":"36е"
  },
  {
    "id":355,
    "street":"Киевский",
    "house":"38"
  },
  {
    "id":356,
    "street":"Киевский",
    "house":"38б"
  },
  {
    "id":357,
    "street":"Киевский",
    "house":"38в"
  },
  {
    "id":358,
    "street":"Киевский",
    "house":"47"
  },
  {
    "id":359,
    "street":"Киевский",
    "house":"48"
  },
  {
    "id":360,
    "street":"Киевский",
    "house":"5"
  },
  {
    "id":361,
    "street":"Киевский",
    "house":"5а"
  },
  {
    "id":362,
    "street":"Киевский",
    "house":"5б"
  },
  {
    "id":363,
    "street":"Киевский",
    "house":"5в"
  },
  {
    "id":364,
    "street":"Киевский",
    "house":"5г"
  },
  {
    "id":365,
    "street":"Киевский",
    "house":"55а"
  },
  {
    "id":366,
    "street":"Киевский",
    "house":"55б"
  },
  {
    "id":367,
    "street":"Киевский",
    "house":"5/7"
  },
  {
    "id":368,
    "street":"Киевский",
    "house":"6"
  },
  {
    "id":369,
    "street":"Киевский",
    "house":"7"
  },
  {
    "id":370,
    "street":"Кирова",
    "house":"13"
  },
  {
    "id":371,
    "street":"Кирова",
    "house":"22"
  },
  {
    "id":372,
    "street":"Кирова",
    "house":"4"
  },
  {
    "id":373,
    "street":"Кирова",
    "house":"42"
  },
  {
    "id":374,
    "street":"Кирова",
    "house":"43"
  },
  {
    "id":375,
    "street":"Кирова",
    "house":"44"
  },
  {
    "id":376,
    "street":"Кирова",
    "house":"6"
  },
  {
    "id":377,
    "street":"Кобозева",
    "house":"68"
  },
  {
    "id":378,
    "street":"Коваля",
    "house":"65а"
  },
  {
    "id":379,
    "street":"Коваля",
    "house":"80"
  },
  {
    "id":380,
    "street":"Коваля",
    "house":"84"
  },
  {
    "id":381,
    "street":"Коваля",
    "house":"86"
  },
  {
    "id":382,
    "street":"Коммунаров пл.",
    "house":"1"
  },
  {
    "id":383,
    "street":"Комсомольский",
    "house":"15"
  },
  {
    "id":384,
    "street":"Комсомольский",
    "house":"17"
  },
  {
    "id":385,
    "street":"Комсомольский",
    "house":"21"
  },
  {
    "id":386,
    "street":"Комсомольский",
    "house":"24"
  },
  {
    "id":387,
    "street":"Комсомольский",
    "house":"26"
  },
  {
    "id":388,
    "street":"Комсомольский",
    "house":"27"
  },
  {
    "id":389,
    "street":"Комсомольский",
    "house":"28"
  },
  {
    "id":390,
    "street":"Комсомольский",
    "house":"30"
  },
  {
    "id":391,
    "street":"Комсомольский",
    "house":"31"
  },
  {
    "id":392,
    "street":"Комсомольский",
    "house":"33"
  },
  {
    "id":393,
    "street":"Комсомольский",
    "house":"39"
  },
  {
    "id":394,
    "street":"Комсомольский",
    "house":"4"
  },
  {
    "id":395,
    "street":"Комсомольский",
    "house":"41"
  },
  {
    "id":396,
    "street":"Комсомольский",
    "house":"7"
  },
  {
    "id":397,
    "street":"Конституции пл.",
    "house":"1"
  },
  {
    "id":398,
    "street":"Конституции пл.",
    "house":"2"
  },
  {
    "id":399,
    "street":"Конституции пл.",
    "house":"3"
  },
  {
    "id":400,
    "street":"Конституции пл.",
    "house":"4"
  },
  {
    "id":401,
    "street":"Конституции пл.",
    "house":"5"
  },
  {
    "id":402,
    "street":"Конституции пл.",
    "house":"6"
  },
  {
    "id":403,
    "street":"Красноармейская",
    "house":"78"
  },
  {
    "id":404,
    "street":"Красноармейская",
    "house":"84"
  },
  {
    "id":405,
    "street":"Красногвардейский",
    "house":"12"
  },
  {
    "id":406,
    "street":"Красногвардейский",
    "house":"14"
  },
  {
    "id":407,
    "street":"Красногвардейский",
    "house":"2"
  },
  {
    "id":408,
    "street":"Красногвардейский",
    "house":"4"
  },
  {
    "id":409,
    "street":"Красногвардейский",
    "house":"8"
  },
  {
    "id":410,
    "street":"Краснодонская",
    "house":"58"
  },
  {
    "id":411,
    "street":"Краснодонская",
    "house":"58а"
  },
  {
    "id":412,
    "street":"Краснодонская",
    "house":"60"
  },
  {
    "id":413,
    "street":"Краснодонская",
    "house":"62"
  },
  {
    "id":414,
    "street":"Краснодонская",
    "house":"64"
  },
  {
    "id":415,
    "street":"Краснодонская",
    "house":"70"
  },
  {
    "id":416,
    "street":"Краснофлотская",
    "house":"100б"
  },
  {
    "id":417,
    "street":"Краснофлотская",
    "house":"102"
  },
  {
    "id":418,
    "street":"Краснофлотская",
    "house":"104"
  },
  {
    "id":419,
    "street":"Краснофлотская",
    "house":"106"
  },
  {
    "id":420,
    "street":"Краснофлотская",
    "house":"108"
  },
  {
    "id":421,
    "street":"Краснофлотская",
    "house":"108а"
  },
  {
    "id":422,
    "street":"Краснофлотская",
    "house":"110"
  },
  {
    "id":423,
    "street":"Краснофлотская",
    "house":"60"
  },
  {
    "id":424,
    "street":"Краснофлотская",
    "house":"88а"
  },
  {
    "id":425,
    "street":"Краснофлотская",
    "house":"90"
  },
  {
    "id":426,
    "street":"Куйбышева",
    "house":"1"
  },
  {
    "id":427,
    "street":"Куйбышева",
    "house":"11"
  },
  {
    "id":428,
    "street":"Куйбышева",
    "house":"13"
  },
  {
    "id":429,
    "street":"Куйбышева",
    "house":"13а"
  },
  {
    "id":430,
    "street":"Куйбышева",
    "house":"15"
  },
  {
    "id":431,
    "street":"Куйбышева",
    "house":"17а"
  },
  {
    "id":432,
    "street":"Куйбышева",
    "house":"19"
  },
  {
    "id":433,
    "street":"Куйбышева",
    "house":"2"
  },
  {
    "id":434,
    "street":"Куйбышева",
    "house":"23"
  },
  {
    "id":435,
    "street":"Куйбышева",
    "house":"3"
  },
  {
    "id":436,
    "street":"Куйбышева",
    "house":"30"
  },
  {
    "id":437,
    "street":"Куйбышева",
    "house":"31в"
  },
  {
    "id":438,
    "street":"Куйбышева",
    "house":"34"
  },
  {
    "id":439,
    "street":"Куйбышева",
    "house":"38"
  },
  {
    "id":440,
    "street":"Куйбышева",
    "house":"4"
  },
  {
    "id":441,
    "street":"Куйбышева",
    "house":"40"
  },
  {
    "id":442,
    "street":"Куйбышева",
    "house":"43"
  },
  {
    "id":443,
    "street":"Куйбышева",
    "house":"45"
  },
  {
    "id":444,
    "street":"Куйбышева",
    "house":"5"
  },
  {
    "id":445,
    "street":"Куйбышева",
    "house":"6"
  },
  {
    "id":446,
    "street":"Куйбышева",
    "house":"61"
  },
  {
    "id":447,
    "street":"Куйбышева",
    "house":"7"
  },
  {
    "id":448,
    "street":"Куйбышева",
    "house":"9"
  },
  {
    "id":449,
    "street":"Кутузова",
    "house":"15"
  },
  {
    "id":450,
    "street":"Кутузова",
    "house":"17"
  },
  {
    "id":451,
    "street":"Кутузова",
    "house":"19"
  },
  {
    "id":452,
    "street":"Кутузова",
    "house":"21"
  },
  {
    "id":453,
    "street":"Кутузова",
    "house":"29"
  },
  {
    "id":454,
    "street":"Кутузова",
    "house":"7"
  },
  {
    "id":455,
    "street":"Лагутенко",
    "house":"13"
  },
  {
    "id":456,
    "street":"Лагутенко",
    "house":"14"
  },
  {
    "id":457,
    "street":"Лазо",
    "house":"31"
  },
  {
    "id":458,
    "street":"Лазо",
    "house":"33"
  },
  {
    "id":459,
    "street":"Лазоренко",
    "house":"63"
  },
  {
    "id":460,
    "street":"Левицкого",
    "house":"13"
  },
  {
    "id":461,
    "street":"Левицкого",
    "house":"17"
  },
  {
    "id":462,
    "street":"Левицкого",
    "house":"4"
  },
  {
    "id":463,
    "street":"Левобережная",
    "house":"60"
  },
  {
    "id":464,
    "street":"Левобережная",
    "house":"62а"
  },
  {
    "id":465,
    "street":"Левобережная",
    "house":"64"
  },
  {
    "id":466,
    "street":"Левобережная",
    "house":"68д"
  },
  {
    "id":467,
    "street":"Ленинский",
    "house":"1"
  },
  {
    "id":468,
    "street":"Ленинский",
    "house":"1а"
  },
  {
    "id":469,
    "street":"Ленинский",
    "house":"10"
  },
  {
    "id":470,
    "street":"Ленинский",
    "house":"1/1а"
  },
  {
    "id":471,
    "street":"Ленинский",
    "house":"11а"
  },
  {
    "id":472,
    "street":"Ленинский",
    "house":"12"
  },
  {
    "id":473,
    "street":"Ленинский",
    "house":"13"
  },
  {
    "id":474,
    "street":"Ленинский",
    "house":"13а"
  },
  {
    "id":475,
    "street":"Ленинский",
    "house":"14"
  },
  {
    "id":476,
    "street":"Ленинский",
    "house":"15а"
  },
  {
    "id":477,
    "street":"Ленинский",
    "house":"17"
  },
  {
    "id":478,
    "street":"Ленинский",
    "house":"2"
  },
  {
    "id":479,
    "street":"Ленинский",
    "house":"2в"
  },
  {
    "id":480,
    "street":"Ленинский",
    "house":"21"
  },
  {
    "id":481,
    "street":"Ленинский",
    "house":"23"
  },
  {
    "id":482,
    "street":"Ленинский",
    "house":"25"
  },
  {
    "id":483,
    "street":"Ленинский",
    "house":"27"
  },
  {
    "id":484,
    "street":"Ленинский",
    "house":"29"
  },
  {
    "id":485,
    "street":"Ленинский",
    "house":"3"
  },
  {
    "id":486,
    "street":"Ленинский",
    "house":"31"
  },
  {
    "id":487,
    "street":"Ленинский",
    "house":"33"
  },
  {
    "id":488,
    "street":"Ленинский",
    "house":"35"
  },
  {
    "id":489,
    "street":"Ленинский",
    "house":"37"
  },
  {
    "id":490,
    "street":"Ленинский",
    "house":"37а"
  },
  {
    "id":491,
    "street":"Ленинский",
    "house":"39"
  },
  {
    "id":492,
    "street":"Ленинский",
    "house":"4"
  },
  {
    "id":493,
    "street":"Ленинский",
    "house":"4а"
  },
  {
    "id":494,
    "street":"Ленинский",
    "house":"5"
  },
  {
    "id":495,
    "street":"Ленинский",
    "house":"6"
  },
  {
    "id":496,
    "street":"Ленинский",
    "house":"7"
  },
  {
    "id":497,
    "street":"Ленинский",
    "house":"7а"
  },
  {
    "id":498,
    "street":"Ленинский",
    "house":"8"
  },
  {
    "id":499,
    "street":"Ленинский",
    "house":"9а"
  },
  {
    "id":500,
    "street":"Литвинова",
    "house":"31"
  },
  {
    "id":501,
    "street":"Любавина",
    "house":"1"
  },
  {
    "id":502,
    "street":"Любавина",
    "house":"5"
  },
  {
    "id":503,
    "street":"Марии Ульяновой",
    "house":"55"
  },
  {
    "id":504,
    "street":"Марии Ульяновой",
    "house":"56"
  },
  {
    "id":505,
    "street":"Марии Ульяновой",
    "house":"58"
  },
  {
    "id":506,
    "street":"Марии Ульяновой",
    "house":"59"
  },
  {
    "id":507,
    "street":"Марии Ульяновой",
    "house":"60"
  },
  {
    "id":508,
    "street":"Марии Ульяновой",
    "house":"61а"
  },
  {
    "id":509,
    "street":"Марии Ульяновой",
    "house":"62"
  },
  {
    "id":510,
    "street":"Марии Ульяновой",
    "house":"62а"
  },
  {
    "id":511,
    "street":"Марии Ульяновой",
    "house":"65"
  },
  {
    "id":512,
    "street":"Маяковского",
    "house":"1"
  },
  {
    "id":513,
    "street":"Маяковского",
    "house":"12"
  },
  {
    "id":514,
    "street":"Маяковского",
    "house":"16"
  },
  {
    "id":515,
    "street":"Маяковского",
    "house":"18"
  },
  {
    "id":516,
    "street":"Маяковского",
    "house":"2а"
  },
  {
    "id":517,
    "street":"Маяковского",
    "house":"20"
  },
  {
    "id":518,
    "street":"Маяковского",
    "house":"20а"
  },
  {
    "id":519,
    "street":"Маяковского",
    "house":"20б"
  },
  {
    "id":520,
    "street":"Маяковского",
    "house":"21"
  },
  {
    "id":521,
    "street":"Маяковского",
    "house":"22"
  },
  {
    "id":522,
    "street":"Маяковского",
    "house":"23"
  },
  {
    "id":523,
    "street":"Маяковского",
    "house":"3"
  },
  {
    "id":524,
    "street":"Маяковского",
    "house":"5"
  },
  {
    "id":525,
    "street":"Маяковского",
    "house":"7"
  },
  {
    "id":526,
    "street":"Маяковского",
    "house":"9"
  },
  {
    "id":527,
    "street":"Мира",
    "house":"1"
  },
  {
    "id":528,
    "street":"Мира",
    "house":"11"
  },
  {
    "id":529,
    "street":"Мира",
    "house":"25"
  },
  {
    "id":530,
    "street":"Мира",
    "house":"27"
  },
  {
    "id":531,
    "street":"Мира",
    "house":"29"
  },
  {
    "id":532,
    "street":"Мира",
    "house":"3"
  },
  {
    "id":533,
    "street":"Мира",
    "house":"31"
  },
  {
    "id":534,
    "street":"Мира",
    "house":"31б"
  },
  {
    "id":535,
    "street":"Мира",
    "house":"4"
  },
  {
    "id":536,
    "street":"Мира",
    "house":"5"
  },
  {
    "id":537,
    "street":"Мира",
    "house":"5а"
  },
  {
    "id":538,
    "street":"Мира",
    "house":"50а"
  },
  {
    "id":539,
    "street":"Мира",
    "house":"51"
  },
  {
    "id":540,
    "street":"Мира",
    "house":"53а"
  },
  {
    "id":541,
    "street":"Мира",
    "house":"55а"
  },
  {
    "id":542,
    "street":"Мира",
    "house":"6"
  },
  {
    "id":543,
    "street":"Мира",
    "house":"61"
  },
  {
    "id":544,
    "street":"Мира",
    "house":"63"
  },
  {
    "id":545,
    "street":"Миронова",
    "house":"13"
  },
  {
    "id":546,
    "street":"Миронова",
    "house":"15"
  },
  {
    "id":547,
    "street":"Моцарта",
    "house":"3"
  },
  {
    "id":548,
    "street":"Моцарта",
    "house":"3а"
  },
  {
    "id":549,
    "street":"Моцарта",
    "house":"5"
  },
  {
    "id":550,
    "street":"Моцарта",
    "house":"7"
  },
  {
    "id":551,
    "street":"Мушкетовская",
    "house":"10"
  },
  {
    "id":552,
    "street":"Мушкетовская",
    "house":"11"
  },
  {
    "id":553,
    "street":"Мушкетовская",
    "house":"13"
  },
  {
    "id":554,
    "street":"Мушкетовская",
    "house":"15"
  },
  {
    "id":555,
    "street":"Мушкетовская",
    "house":"16"
  },
  {
    "id":556,
    "street":"Мушкетовская",
    "house":"22"
  },
  {
    "id":557,
    "street":"Мушкетовская",
    "house":"24"
  },
  {
    "id":558,
    "street":"Мушкетовская",
    "house":"28"
  },
  {
    "id":559,
    "street":"Мушкетовская",
    "house":"30"
  },
  {
    "id":560,
    "street":"Мушкетовская",
    "house":"5"
  },
  {
    "id":561,
    "street":"Мушкетовская",
    "house":"8"
  },
  {
    "id":562,
    "street":"Мушкетовская",
    "house":"9"
  },
  {
    "id":563,
    "street":"Набережная",
    "house":"115а"
  },
  {
    "id":564,
    "street":"Набережная",
    "house":"117"
  },
  {
    "id":565,
    "street":"Набережная",
    "house":"117а"
  },
  {
    "id":566,
    "street":"Набережная",
    "house":"117б"
  },
  {
    "id":567,
    "street":"Набережная",
    "house":"119"
  },
  {
    "id":568,
    "street":"Набережная",
    "house":"119а"
  },
  {
    "id":569,
    "street":"Набережная",
    "house":"123"
  },
  {
    "id":570,
    "street":"Набережная",
    "house":"127"
  },
  {
    "id":571,
    "street":"Набережная",
    "house":"129"
  },
  {
    "id":572,
    "street":"Набережная",
    "house":"131"
  },
  {
    "id":573,
    "street":"Набережная",
    "house":"133"
  },
  {
    "id":574,
    "street":"Набережная",
    "house":"137"
  },
  {
    "id":575,
    "street":"Набережная",
    "house":"137а"
  },
  {
    "id":576,
    "street":"Набережная",
    "house":"139"
  },
  {
    "id":577,
    "street":"Набережная",
    "house":"139а"
  },
  {
    "id":578,
    "street":"Набережная",
    "house":"143"
  },
  {
    "id":579,
    "street":"Набережная",
    "house":"145"
  },
  {
    "id":580,
    "street":"Набережная",
    "house":"147"
  },
  {
    "id":581,
    "street":"Набережная",
    "house":"149"
  },
  {
    "id":582,
    "street":"Набережная",
    "house":"151"
  },
  {
    "id":583,
    "street":"Набережная",
    "house":"153"
  },
  {
    "id":584,
    "street":"Набережная",
    "house":"155"
  },
  {
    "id":585,
    "street":"Набережная",
    "house":"157"
  },
  {
    "id":586,
    "street":"Набережная",
    "house":"159"
  },
  {
    "id":587,
    "street":"Набережная",
    "house":"49"
  },
  {
    "id":588,
    "street":"Нижнеудинская",
    "house":"12"
  },
  {
    "id":589,
    "street":"Нижнеудинская",
    "house":"2"
  },
  {
    "id":590,
    "street":"Нижнеудинская",
    "house":"3"
  },
  {
    "id":591,
    "street":"Нижнеудинская",
    "house":"6"
  },
  {
    "id":592,
    "street":"Николенко",
    "house":"5"
  },
  {
    "id":593,
    "street":"Оборонная",
    "house":"1"
  },
  {
    "id":594,
    "street":"Оборонная",
    "house":"2"
  },
  {
    "id":595,
    "street":"Оборонная",
    "house":"3"
  },
  {
    "id":596,
    "street":"Оборонная",
    "house":"5"
  },
  {
    "id":597,
    "street":"Оборонная",
    "house":"6"
  },
  {
    "id":598,
    "street":"Овнатаняна",
    "house":"20"
  },
  {
    "id":599,
    "street":"Овнатаняна",
    "house":"20а"
  },
  {
    "id":600,
    "street":"Овнатаняна",
    "house":"26"
  },
  {
    "id":601,
    "street":"Овнатаняна",
    "house":"26а"
  },
  {
    "id":602,
    "street":"Овнатаняна",
    "house":"28"
  },
  {
    "id":603,
    "street":"Овнатаняна",
    "house":"30"
  },
  {
    "id":604,
    "street":"Овнатаняна",
    "house":"36"
  },
  {
    "id":605,
    "street":"Овнатаняна",
    "house":"40"
  },
  {
    "id":606,
    "street":"Овнатаняна",
    "house":"42а"
  },
  {
    "id":607,
    "street":"Октябрьская",
    "house":"84"
  },
  {
    "id":608,
    "street":"Орешкова пер.",
    "house":"12"
  },
  {
    "id":609,
    "street":"Орешкова пер.",
    "house":"15"
  },
  {
    "id":610,
    "street":"Орешкова пер.",
    "house":"18а"
  },
  {
    "id":611,
    "street":"Орешкова пер.",
    "house":"20"
  },
  {
    "id":612,
    "street":"Освобождение Донбасса",
    "house":"11а"
  },
  {
    "id":613,
    "street":"Освобождение Донбасса",
    "house":"2"
  },
  {
    "id":614,
    "street":"Освобождение Донбасса",
    "house":"2а"
  },
  {
    "id":615,
    "street":"Освобождение Донбасса",
    "house":"6"
  },
  {
    "id":616,
    "street":"Отечественная",
    "house":"22"
  },
  {
    "id":617,
    "street":"Павших Коммунаров",
    "house":"100"
  },
  {
    "id":618,
    "street":"Павших Коммунаров",
    "house":"102б"
  },
  {
    "id":619,
    "street":"Павших Коммунаров",
    "house":"63"
  },
  {
    "id":620,
    "street":"Павших Коммунаров",
    "house":"75а"
  },
  {
    "id":621,
    "street":"Павших Коммунаров",
    "house":"76"
  },
  {
    "id":622,
    "street":"Павших Коммунаров",
    "house":"77"
  },
  {
    "id":623,
    "street":"Павших Коммунаров",
    "house":"77а"
  },
  {
    "id":624,
    "street":"Павших Коммунаров",
    "house":"78"
  },
  {
    "id":625,
    "street":"Павших Коммунаров",
    "house":"80"
  },
  {
    "id":626,
    "street":"Павших Коммунаров",
    "house":"82"
  },
  {
    "id":627,
    "street":"Павших Коммунаров",
    "house":"84"
  },
  {
    "id":628,
    "street":"Павших Коммунаров",
    "house":"86"
  },
  {
    "id":629,
    "street":"Павших Коммунаров",
    "house":"96"
  },
  {
    "id":630,
    "street":"Панфилова",
    "house":"1"
  },
  {
    "id":631,
    "street":"Панфилова",
    "house":"15и"
  },
  {
    "id":632,
    "street":"Панфилова",
    "house":"19"
  },
  {
    "id":633,
    "street":"Панфилова",
    "house":"21"
  },
  {
    "id":634,
    "street":"Панфилова",
    "house":"6"
  },
  {
    "id":635,
    "street":"Пархоменко",
    "house":"1"
  },
  {
    "id":636,
    "street":"Пархоменко",
    "house":"15"
  },
  {
    "id":637,
    "street":"Пархоменко",
    "house":"23"
  },
  {
    "id":638,
    "street":"Пархоменко",
    "house":"4"
  },
  {
    "id":639,
    "street":"Первомайская",
    "house":"38"
  },
  {
    "id":640,
    "street":"Политбойцов",
    "house":"10"
  },
  {
    "id":641,
    "street":"Политбойцов",
    "house":"3а"
  },
  {
    "id":642,
    "street":"Политбойцов",
    "house":"5"
  },
  {
    "id":643,
    "street":"Политбойцов",
    "house":"6"
  },
  {
    "id":644,
    "street":"Политбойцов",
    "house":"8"
  },
  {
    "id":645,
    "street":"Политбойцов",
    "house":"9"
  },
  {
    "id":646,
    "street":"Полководческая",
    "house":"10"
  },
  {
    "id":647,
    "street":"Полководческая",
    "house":"8"
  },
  {
    "id":648,
    "street":"Постышева",
    "house":"103"
  },
  {
    "id":649,
    "street":"Постышева",
    "house":"107"
  },
  {
    "id":650,
    "street":"Постышева",
    "house":"109"
  },
  {
    "id":651,
    "street":"Постышева",
    "house":"117"
  },
  {
    "id":652,
    "street":"Постышева",
    "house":"118"
  },
  {
    "id":653,
    "street":"Постышева",
    "house":"122"
  },
  {
    "id":654,
    "street":"Постышева",
    "house":"129"
  },
  {
    "id":655,
    "street":"Постышева",
    "house":"131"
  },
  {
    "id":656,
    "street":"Постышева",
    "house":"133"
  },
  {
    "id":657,
    "street":"Постышева",
    "house":"137"
  },
  {
    "id":658,
    "street":"Постышева",
    "house":"52"
  },
  {
    "id":659,
    "street":"Постышева",
    "house":"60"
  },
  {
    "id":660,
    "street":"Постышева",
    "house":"83"
  },
  {
    "id":661,
    "street":"Постышева",
    "house":"85"
  },
  {
    "id":662,
    "street":"Постышева",
    "house":"97"
  },
  {
    "id":663,
    "street":"Прокатчиков",
    "house":"25"
  },
  {
    "id":664,
    "street":"Проходчиков",
    "house":"11"
  },
  {
    "id":665,
    "street":"Проходчиков",
    "house":"13"
  },
  {
    "id":666,
    "street":"Пушкина",
    "house":"1"
  },
  {
    "id":667,
    "street":"Пушкина",
    "house":"12"
  },
  {
    "id":668,
    "street":"Пушкина",
    "house":"13"
  },
  {
    "id":669,
    "street":"Пушкина",
    "house":"16"
  },
  {
    "id":670,
    "street":"Пушкина",
    "house":"18"
  },
  {
    "id":671,
    "street":"Пушкина",
    "house":"20"
  },
  {
    "id":672,
    "street":"Пушкина",
    "house":"23"
  },
  {
    "id":673,
    "street":"Пушкина",
    "house":"24"
  },
  {
    "id":674,
    "street":"Пушкина",
    "house":"25"
  },
  {
    "id":675,
    "street":"Пушкина",
    "house":"26"
  },
  {
    "id":676,
    "street":"Пушкина",
    "house":"27"
  },
  {
    "id":677,
    "street":"Пушкина",
    "house":"28"
  },
  {
    "id":678,
    "street":"Пушкина",
    "house":"29"
  },
  {
    "id":679,
    "street":"Пушкина",
    "house":"30"
  },
  {
    "id":680,
    "street":"Пушкина",
    "house":"31"
  },
  {
    "id":681,
    "street":"Пушкина",
    "house":"35"
  },
  {
    "id":682,
    "street":"Пушкина",
    "house":"5"
  },
  {
    "id":683,
    "street":"Пушкина",
    "house":"9"
  },
  {
    "id":684,
    "street":"Разенкова",
    "house":"10"
  },
  {
    "id":685,
    "street":"Разенкова",
    "house":"12"
  },
  {
    "id":686,
    "street":"Разенкова",
    "house":"13"
  },
  {
    "id":687,
    "street":"Разенкова",
    "house":"14"
  },
  {
    "id":688,
    "street":"Разенкова",
    "house":"16"
  },
  {
    "id":689,
    "street":"Разенкова",
    "house":"24б"
  },
  {
    "id":690,
    "street":"Розы Люксембург",
    "house":"1"
  },
  {
    "id":691,
    "street":"Розы Люксембург",
    "house":"103а"
  },
  {
    "id":692,
    "street":"Розы Люксембург",
    "house":"105"
  },
  {
    "id":693,
    "street":"Розы Люксембург",
    "house":"107"
  },
  {
    "id":694,
    "street":"Розы Люксембург",
    "house":"109"
  },
  {
    "id":695,
    "street":"Розы Люксембург",
    "house":"109а"
  },
  {
    "id":696,
    "street":"Розы Люксембург",
    "house":"11"
  },
  {
    "id":697,
    "street":"Розы Люксембург",
    "house":"111"
  },
  {
    "id":698,
    "street":"Розы Люксембург",
    "house":"15"
  },
  {
    "id":699,
    "street":"Розы Люксембург",
    "house":"19"
  },
  {
    "id":700,
    "street":"Розы Люксембург",
    "house":"2б"
  },
  {
    "id":701,
    "street":"Розы Люксембург",
    "house":"20"
  },
  {
    "id":702,
    "street":"Розы Люксембург",
    "house":"20а"
  },
  {
    "id":703,
    "street":"Розы Люксембург",
    "house":"20б"
  },
  {
    "id":704,
    "street":"Розы Люксембург",
    "house":"25"
  },
  {
    "id":705,
    "street":"Розы Люксембург",
    "house":"26"
  },
  {
    "id":706,
    "street":"Розы Люксембург",
    "house":"28"
  },
  {
    "id":707,
    "street":"Розы Люксембург",
    "house":"28а"
  },
  {
    "id":708,
    "street":"Розы Люксембург",
    "house":"29"
  },
  {
    "id":709,
    "street":"Розы Люксембург",
    "house":"3"
  },
  {
    "id":710,
    "street":"Розы Люксембург",
    "house":"30"
  },
  {
    "id":711,
    "street":"Розы Люксембург",
    "house":"30а"
  },
  {
    "id":712,
    "street":"Розы Люксембург",
    "house":"30б"
  },
  {
    "id":713,
    "street":"Розы Люксембург",
    "house":"31"
  },
  {
    "id":714,
    "street":"Розы Люксембург",
    "house":"32"
  },
  {
    "id":715,
    "street":"Розы Люксембург",
    "house":"34"
  },
  {
    "id":716,
    "street":"Розы Люксембург",
    "house":"36"
  },
  {
    "id":717,
    "street":"Розы Люксембург",
    "house":"38"
  },
  {
    "id":718,
    "street":"Розы Люксембург",
    "house":"38а"
  },
  {
    "id":719,
    "street":"Розы Люксембург",
    "house":"48а"
  },
  {
    "id":720,
    "street":"Розы Люксембург",
    "house":"5"
  },
  {
    "id":721,
    "street":"Розы Люксембург",
    "house":"52"
  },
  {
    "id":722,
    "street":"Розы Люксембург",
    "house":"67"
  },
  {
    "id":723,
    "street":"Розы Люксембург",
    "house":"6/8"
  },
  {
    "id":724,
    "street":"Розы Люксембург",
    "house":"69"
  },
  {
    "id":725,
    "street":"Розы Люксембург",
    "house":"7"
  },
  {
    "id":726,
    "street":"Розы Люксембург",
    "house":"73"
  },
  {
    "id":727,
    "street":"Розы Люксембург",
    "house":"75"
  },
  {
    "id":728,
    "street":"Розы Люксембург",
    "house":"77"
  },
  {
    "id":729,
    "street":"Розы Люксембург",
    "house":"80а"
  },
  {
    "id":730,
    "street":"Розы Люксембург",
    "house":"82"
  },
  {
    "id":731,
    "street":"Розы Люксембург",
    "house":"86"
  },
  {
    "id":732,
    "street":"Розы Люксембург",
    "house":"9"
  },
  {
    "id":733,
    "street":"Рослого",
    "house":"80"
  },
  {
    "id":734,
    "street":"Рослого",
    "house":"82"
  },
  {
    "id":735,
    "street":"Савченко",
    "house":"12"
  },
  {
    "id":736,
    "street":"Савченко",
    "house":"13"
  },
  {
    "id":737,
    "street":"Савченко",
    "house":"14"
  },
  {
    "id":738,
    "street":"Савченко",
    "house":"16"
  },
  {
    "id":739,
    "street":"Савченко",
    "house":"19"
  },
  {
    "id":740,
    "street":"Савченко",
    "house":"3"
  },
  {
    "id":741,
    "street":"Савченко",
    "house":"42"
  },
  {
    "id":742,
    "street":"Савченко",
    "house":"5"
  },
  {
    "id":743,
    "street":"Савченко",
    "house":"7"
  },
  {
    "id":744,
    "street":"Савченко",
    "house":"9"
  },
  {
    "id":745,
    "street":"Северская",
    "house":"17"
  },
  {
    "id":746,
    "street":"Северская",
    "house":"23"
  },
  {
    "id":747,
    "street":"Собинова",
    "house":"132"
  },
  {
    "id":748,
    "street":"Собинова",
    "house":"134"
  },
  {
    "id":749,
    "street":"Собинова",
    "house":"134а"
  },
  {
    "id":750,
    "street":"Собинова",
    "house":"136"
  },
  {
    "id":751,
    "street":"Собинова",
    "house":"136а"
  },
  {
    "id":752,
    "street":"Собинова",
    "house":"150"
  },
  {
    "id":753,
    "street":"Спортивная",
    "house":"12"
  },
  {
    "id":754,
    "street":"Спортивная",
    "house":"14"
  },
  {
    "id":755,
    "street":"Спортивная",
    "house":"16"
  },
  {
    "id":756,
    "street":"Спортивная",
    "house":"2"
  },
  {
    "id":757,
    "street":"Спортивная",
    "house":"4"
  },
  {
    "id":758,
    "street":"Спортивная",
    "house":"8"
  },
  {
    "id":759,
    "street":"Стадионная",
    "house":"10"
  },
  {
    "id":760,
    "street":"Стадионная",
    "house":"12"
  },
  {
    "id":761,
    "street":"Стадионная",
    "house":"16"
  },
  {
    "id":762,
    "street":"Стадионная",
    "house":"18"
  },
  {
    "id":763,
    "street":"Стадионная",
    "house":"20б"
  },
  {
    "id":764,
    "street":"Стадионная",
    "house":"4"
  },
  {
    "id":765,
    "street":"Стадионная",
    "house":"8"
  },
  {
    "id":766,
    "street":"Театральный",
    "house":"11"
  },
  {
    "id":767,
    "street":"Театральный",
    "house":"12"
  },
  {
    "id":768,
    "street":"Театральный",
    "house":"18"
  },
  {
    "id":769,
    "street":"Театральный",
    "house":"2"
  },
  {
    "id":770,
    "street":"Театральный",
    "house":"23"
  },
  {
    "id":771,
    "street":"Театральный",
    "house":"23а"
  },
  {
    "id":772,
    "street":"Театральный",
    "house":"24"
  },
  {
    "id":773,
    "street":"Театральный",
    "house":"36"
  },
  {
    "id":774,
    "street":"Театральный",
    "house":"4"
  },
  {
    "id":775,
    "street":"Театральный",
    "house":"40"
  },
  {
    "id":776,
    "street":"Театральный",
    "house":"9"
  },
  {
    "id":777,
    "street":"Титова Германа",
    "house":"7"
  },
  {
    "id":778,
    "street":"Ткаченко",
    "house":"135"
  },
  {
    "id":779,
    "street":"Ткаченко Ивана",
    "house":"1"
  },
  {
    "id":780,
    "street":"Ткаченко Ивана",
    "house":"1а"
  },
  {
    "id":781,
    "street":"Ткаченко Ивана",
    "house":"147"
  },
  {
    "id":782,
    "street":"Ткаченко Ивана",
    "house":"157"
  },
  {
    "id":783,
    "street":"Тренева",
    "house":"1"
  },
  {
    "id":784,
    "street":"Тренева",
    "house":"1а"
  },
  {
    "id":785,
    "street":"Тренева",
    "house":"1в"
  },
  {
    "id":786,
    "street":"Тренева",
    "house":"3аб"
  },
  {
    "id":787,
    "street":"Тренева",
    "house":"3в"
  },
  {
    "id":788,
    "street":"Тренева",
    "house":"5а"
  },
  {
    "id":789,
    "street":"Тренева",
    "house":"5в"
  },
  {
    "id":790,
    "street":"Тушинская",
    "house":"13"
  },
  {
    "id":791,
    "street":"Тушинская",
    "house":"16"
  },
  {
    "id":792,
    "street":"Университетская",
    "house":"100"
  },
  {
    "id":793,
    "street":"Университетская",
    "house":"102"
  },
  {
    "id":794,
    "street":"Университетская",
    "house":"104"
  },
  {
    "id":795,
    "street":"Университетская",
    "house":"106"
  },
  {
    "id":796,
    "street":"Университетская",
    "house":"106а"
  },
  {
    "id":797,
    "street":"Университетская",
    "house":"107"
  },
  {
    "id":798,
    "street":"Университетская",
    "house":"109"
  },
  {
    "id":799,
    "street":"Университетская",
    "house":"112"
  },
  {
    "id":800,
    "street":"Университетская",
    "house":"116"
  },
  {
    "id":801,
    "street":"Университетская",
    "house":"118"
  },
  {
    "id":802,
    "street":"Университетская",
    "house":"118б"
  },
  {
    "id":803,
    "street":"Университетская",
    "house":"12"
  },
  {
    "id":804,
    "street":"Университетская",
    "house":"120"
  },
  {
    "id":805,
    "street":"Университетская",
    "house":"120б"
  },
  {
    "id":806,
    "street":"Университетская",
    "house":"134"
  },
  {
    "id":807,
    "street":"Университетская",
    "house":"138"
  },
  {
    "id":808,
    "street":"Университетская",
    "house":"14"
  },
  {
    "id":809,
    "street":"Университетская",
    "house":"15"
  },
  {
    "id":810,
    "street":"Университетская",
    "house":"16"
  },
  {
    "id":811,
    "street":"Университетская",
    "house":"18"
  },
  {
    "id":812,
    "street":"Университетская",
    "house":"2"
  },
  {
    "id":813,
    "street":"Университетская",
    "house":"21"
  },
  {
    "id":814,
    "street":"Университетская",
    "house":"25"
  },
  {
    "id":815,
    "street":"Университетская",
    "house":"26"
  },
  {
    "id":816,
    "street":"Университетская",
    "house":"27"
  },
  {
    "id":817,
    "street":"Университетская",
    "house":"28а"
  },
  {
    "id":818,
    "street":"Университетская",
    "house":"29"
  },
  {
    "id":819,
    "street":"Университетская",
    "house":"3"
  },
  {
    "id":820,
    "street":"Университетская",
    "house":"30"
  },
  {
    "id":821,
    "street":"Университетская",
    "house":"30а"
  },
  {
    "id":822,
    "street":"Университетская",
    "house":"31"
  },
  {
    "id":823,
    "street":"Университетская",
    "house":"32"
  },
  {
    "id":824,
    "street":"Университетская",
    "house":"33"
  },
  {
    "id":825,
    "street":"Университетская",
    "house":"34"
  },
  {
    "id":826,
    "street":"Университетская",
    "house":"35"
  },
  {
    "id":827,
    "street":"Университетская",
    "house":"36"
  },
  {
    "id":828,
    "street":"Университетская",
    "house":"36а"
  },
  {
    "id":829,
    "street":"Университетская",
    "house":"37"
  },
  {
    "id":830,
    "street":"Университетская",
    "house":"38а"
  },
  {
    "id":831,
    "street":"Университетская",
    "house":"39"
  },
  {
    "id":832,
    "street":"Университетская",
    "house":"40"
  },
  {
    "id":833,
    "street":"Университетская",
    "house":"42"
  },
  {
    "id":834,
    "street":"Университетская",
    "house":"44"
  },
  {
    "id":835,
    "street":"Университетская",
    "house":"46"
  },
  {
    "id":836,
    "street":"Университетская",
    "house":"48а"
  },
  {
    "id":837,
    "street":"Университетская",
    "house":"48б"
  },
  {
    "id":838,
    "street":"Университетская",
    "house":"52"
  },
  {
    "id":839,
    "street":"Университетская",
    "house":"53"
  },
  {
    "id":840,
    "street":"Университетская",
    "house":"53а"
  },
  {
    "id":841,
    "street":"Университетская",
    "house":"54"
  },
  {
    "id":842,
    "street":"Университетская",
    "house":"54б"
  },
  {
    "id":843,
    "street":"Университетская",
    "house":"55"
  },
  {
    "id":844,
    "street":"Университетская",
    "house":"56"
  },
  {
    "id":845,
    "street":"Университетская",
    "house":"56а"
  },
  {
    "id":846,
    "street":"Университетская",
    "house":"57"
  },
  {
    "id":847,
    "street":"Университетская",
    "house":"58"
  },
  {
    "id":848,
    "street":"Университетская",
    "house":"59"
  },
  {
    "id":849,
    "street":"Университетская",
    "house":"6"
  },
  {
    "id":850,
    "street":"Университетская",
    "house":"63"
  },
  {
    "id":851,
    "street":"Университетская",
    "house":"65"
  },
  {
    "id":852,
    "street":"Университетская",
    "house":"67"
  },
  {
    "id":853,
    "street":"Университетская",
    "house":"69"
  },
  {
    "id":854,
    "street":"Университетская",
    "house":"7"
  },
  {
    "id":855,
    "street":"Университетская",
    "house":"7а"
  },
  {
    "id":856,
    "street":"Университетская",
    "house":"71"
  },
  {
    "id":857,
    "street":"Университетская",
    "house":"73"
  },
  {
    "id":858,
    "street":"Университетская",
    "house":"74"
  },
  {
    "id":859,
    "street":"Университетская",
    "house":"75"
  },
  {
    "id":860,
    "street":"Университетская",
    "house":"76"
  },
  {
    "id":861,
    "street":"Университетская",
    "house":"78"
  },
  {
    "id":862,
    "street":"Университетская",
    "house":"8"
  },
  {
    "id":863,
    "street":"Университетская",
    "house":"80"
  },
  {
    "id":864,
    "street":"Университетская",
    "house":"82"
  },
  {
    "id":865,
    "street":"Университетская",
    "house":"93"
  },
  {
    "id":866,
    "street":"Университетская",
    "house":"94"
  },
  {
    "id":867,
    "street":"Университетская",
    "house":"94а"
  },
  {
    "id":868,
    "street":"Университетская",
    "house":"95"
  },
  {
    "id":869,
    "street":"Университетская",
    "house":"96"
  },
  {
    "id":870,
    "street":"Университетская",
    "house":"97"
  },
  {
    "id":871,
    "street":"Университетская",
    "house":"97а"
  },
  {
    "id":872,
    "street":"Университетская",
    "house":"98а"
  },
  {
    "id":873,
    "street":"Федора Зайцева",
    "house":"148"
  },
  {
    "id":874,
    "street":"Федора Зайцева",
    "house":"154"
  },
  {
    "id":875,
    "street":"Харитонова",
    "house":"12"
  },
  {
    "id":876,
    "street":"Харитонова",
    "house":"2"
  },
  {
    "id":877,
    "street":"Харитонова",
    "house":"4"
  },
  {
    "id":878,
    "street":"Харитонова",
    "house":"6"
  },
  {
    "id":879,
    "street":"Харитонова",
    "house":"8"
  },
  {
    "id":880,
    "street":"Ходаковского",
    "house":"2а"
  },
  {
    "id":881,
    "street":"Ходаковского",
    "house":"3"
  },
  {
    "id":882,
    "street":"Ходаковского",
    "house":"6"
  },
  {
    "id":883,
    "street":"Ходаковского",
    "house":"8"
  },
  {
    "id":884,
    "street":"Цусимская",
    "house":"12а"
  },
  {
    "id":885,
    "street":"Цусимская",
    "house":"16"
  },
  {
    "id":886,
    "street":"Цусимская",
    "house":"29"
  },
  {
    "id":887,
    "street":"Цусимская",
    "house":"35"
  },
  {
    "id":888,
    "street":"Цусимская",
    "house":"55"
  },
  {
    "id":889,
    "street":"Цусимская",
    "house":"57"
  },
  {
    "id":890,
    "street":"Цусимская",
    "house":"59"
  },
  {
    "id":891,
    "street":"Цусимская",
    "house":"59а"
  },
  {
    "id":892,
    "street":"Цусимская",
    "house":"61"
  },
  {
    "id":893,
    "street":"Цусимская",
    "house":"63"
  },
  {
    "id":894,
    "street":"Цусимская",
    "house":"63а"
  },
  {
    "id":895,
    "street":"Цусимская",
    "house":"65"
  },
  {
    "id":896,
    "street":"Цусимская",
    "house":"65а"
  },
  {
    "id":897,
    "street":"Цусимская",
    "house":"65б"
  },
  {
    "id":898,
    "street":"Цусимская",
    "house":"67"
  },
  {
    "id":899,
    "street":"Цусимская",
    "house":"67б"
  },
  {
    "id":900,
    "street":"Цусимская",
    "house":"69"
  },
  {
    "id":901,
    "street":"Цусимская",
    "house":"91"
  },
  {
    "id":902,
    "street":"Цусимская",
    "house":"91а"
  },
  {
    "id":903,
    "street":"Челюскинцев",
    "house":"107"
  },
  {
    "id":904,
    "street":"Челюскинцев",
    "house":"117"
  },
  {
    "id":905,
    "street":"Челюскинцев",
    "house":"117а"
  },
  {
    "id":906,
    "street":"Челюскинцев",
    "house":"121"
  },
  {
    "id":907,
    "street":"Челюскинцев",
    "house":"123"
  },
  {
    "id":908,
    "street":"Челюскинцев",
    "house":"125"
  },
  {
    "id":909,
    "street":"Челюскинцев",
    "house":"127"
  },
  {
    "id":910,
    "street":"Челюскинцев",
    "house":"129"
  },
  {
    "id":911,
    "street":"Челюскинцев",
    "house":"140"
  },
  {
    "id":912,
    "street":"Челюскинцев",
    "house":"142"
  },
  {
    "id":913,
    "street":"Челюскинцев",
    "house":"144"
  },
  {
    "id":914,
    "street":"Челюскинцев",
    "house":"146"
  },
  {
    "id":915,
    "street":"Челюскинцев",
    "house":"148"
  },
  {
    "id":916,
    "street":"Челюскинцев",
    "house":"153"
  },
  {
    "id":917,
    "street":"Челюскинцев",
    "house":"155"
  },
  {
    "id":918,
    "street":"Челюскинцев",
    "house":"155а"
  },
  {
    "id":919,
    "street":"Челюскинцев",
    "house":"167"
  },
  {
    "id":920,
    "street":"Челюскинцев",
    "house":"169"
  },
  {
    "id":921,
    "street":"Челюскинцев",
    "house":"184"
  },
  {
    "id":922,
    "street":"Челюскинцев",
    "house":"188"
  },
  {
    "id":923,
    "street":"Челюскинцев",
    "house":"192"
  },
  {
    "id":924,
    "street":"Челюскинцев",
    "house":"194"
  },
  {
    "id":925,
    "street":"Челюскинцев",
    "house":"196"
  },
  {
    "id":926,
    "street":"Челюскинцев",
    "house":"198"
  },
  {
    "id":927,
    "street":"Челюскинцев",
    "house":"263"
  },
  {
    "id":928,
    "street":"Челюскинцев",
    "house":"267"
  },
  {
    "id":929,
    "street":"Челюскинцев",
    "house":"271"
  },
  {
    "id":930,
    "street":"Челюскинцев",
    "house":"275"
  },
  {
    "id":931,
    "street":"Челюскинцев",
    "house":"69а"
  },
  {
    "id":932,
    "street":"Челюскинцев",
    "house":"71"
  },
  {
    "id":933,
    "street":"Черкасова",
    "house":"1"
  },
  {
    "id":934,
    "street":"Черкасова",
    "house":"1а"
  },
  {
    "id":935,
    "street":"Черкасова",
    "house":"1б"
  },
  {
    "id":936,
    "street":"Черкасова",
    "house":"2а"
  },
  {
    "id":937,
    "street":"Черкасова",
    "house":"2б"
  },
  {
    "id":938,
    "street":"Черкасова",
    "house":"3"
  },
  {
    "id":939,
    "street":"Черкасова",
    "house":"4"
  },
  {
    "id":940,
    "street":"Черниговская",
    "house":"2"
  },
  {
    "id":941,
    "street":"Черниговская",
    "house":"4"
  },
  {
    "id":942,
    "street":"Черниговская",
    "house":"4а"
  },
  {
    "id":943,
    "street":"Черниговская",
    "house":"5"
  },
  {
    "id":944,
    "street":"Черниговская",
    "house":"6"
  },
  {
    "id":945,
    "street":"Черниговская",
    "house":"6а"
  },
  {
    "id":946,
    "street":"Черниговская",
    "house":"6б"
  },
  {
    "id":947,
    "street":"Черниговская",
    "house":"7"
  },
  {
    "id":948,
    "street":"Черниговская",
    "house":"8"
  },
  {
    "id":949,
    "street":"Черниговская",
    "house":"8а"
  },
  {
    "id":950,
    "street":"Черниговская",
    "house":"8б"
  },
  {
    "id":951,
    "street":"Шахтостроителей",
    "house":"1"
  },
  {
    "id":952,
    "street":"Шахтостроителей",
    "house":"1а"
  },
  {
    "id":953,
    "street":"Шахтостроителей",
    "house":"10"
  },
  {
    "id":954,
    "street":"Шахтостроителей",
    "house":"10а"
  },
  {
    "id":955,
    "street":"Шахтостроителей",
    "house":"11"
  },
  {
    "id":956,
    "street":"Шахтостроителей",
    "house":"13"
  },
  {
    "id":957,
    "street":"Шахтостроителей",
    "house":"16"
  },
  {
    "id":958,
    "street":"Шахтостроителей",
    "house":"16а"
  },
  {
    "id":959,
    "street":"Шахтостроителей",
    "house":"17"
  },
  {
    "id":960,
    "street":"Шахтостроителей",
    "house":"18"
  },
  {
    "id":961,
    "street":"Шахтостроителей",
    "house":"19"
  },
  {
    "id":962,
    "street":"Шахтостроителей",
    "house":"2"
  },
  {
    "id":963,
    "street":"Шахтостроителей",
    "house":"2а"
  },
  {
    "id":964,
    "street":"Шахтостроителей",
    "house":"20"
  },
  {
    "id":965,
    "street":"Шахтостроителей",
    "house":"22"
  },
  {
    "id":966,
    "street":"Шахтостроителей",
    "house":"24"
  },
  {
    "id":967,
    "street":"Шахтостроителей",
    "house":"26"
  },
  {
    "id":968,
    "street":"Шахтостроителей",
    "house":"3"
  },
  {
    "id":969,
    "street":"Шахтостроителей",
    "house":"4"
  },
  {
    "id":970,
    "street":"Шахтостроителей",
    "house":"44"
  },
  {
    "id":971,
    "street":"Шахтостроителей",
    "house":"46"
  },
  {
    "id":972,
    "street":"Шахтостроителей",
    "house":"48"
  },
  {
    "id":973,
    "street":"Шахтостроителей",
    "house":"5"
  },
  {
    "id":974,
    "street":"Шахтостроителей",
    "house":"5а"
  },
  {
    "id":975,
    "street":"Шахтостроителей",
    "house":"50"
  },
  {
    "id":976,
    "street":"Шахтостроителей",
    "house":"52"
  },
  {
    "id":977,
    "street":"Шахтостроителей",
    "house":"53"
  },
  {
    "id":978,
    "street":"Шахтостроителей",
    "house":"54"
  },
  {
    "id":979,
    "street":"Шахтостроителей",
    "house":"56"
  },
  {
    "id":980,
    "street":"Шахтостроителей",
    "house":"6"
  },
  {
    "id":981,
    "street":"Шахтостроителей",
    "house":"7"
  },
  {
    "id":982,
    "street":"Шахтостроителей",
    "house":"7а"
  },
  {
    "id":983,
    "street":"Шахтостроителей",
    "house":"8"
  },
  {
    "id":984,
    "street":"Шевченко",
    "house":"100"
  },
  {
    "id":985,
    "street":"Шевченко",
    "house":"101"
  },
  {
    "id":986,
    "street":"Шевченко",
    "house":"102"
  },
  {
    "id":987,
    "street":"Шевченко",
    "house":"103"
  },
  {
    "id":988,
    "street":"Шевченко",
    "house":"107"
  },
  {
    "id":989,
    "street":"Шевченко",
    "house":"109"
  },
  {
    "id":990,
    "street":"Шевченко",
    "house":"111"
  },
  {
    "id":991,
    "street":"Шевченко",
    "house":"113"
  },
  {
    "id":992,
    "street":"Шевченко",
    "house":"115"
  },
  {
    "id":993,
    "street":"Шевченко",
    "house":"117"
  },
  {
    "id":994,
    "street":"Шевченко",
    "house":"119"
  },
  {
    "id":995,
    "street":"Шевченко",
    "house":"12"
  },
  {
    "id":996,
    "street":"Шевченко",
    "house":"121"
  },
  {
    "id":997,
    "street":"Шевченко",
    "house":"123"
  },
  {
    "id":998,
    "street":"Шевченко",
    "house":"125"
  },
  {
    "id":999,
    "street":"Шевченко",
    "house":"127"
  },
  {
    "id":1000,
    "street":"Шевченко",
    "house":"129"
  },
  {
    "id":1001,
    "street":"Шевченко",
    "house":"131"
  },
  {
    "id":1002,
    "street":"Шевченко",
    "house":"14"
  },
  {
    "id":1003,
    "street":"Шевченко",
    "house":"15"
  },
  {
    "id":1004,
    "street":"Шевченко",
    "house":"15а"
  },
  {
    "id":1005,
    "street":"Шевченко",
    "house":"16"
  },
  {
    "id":1006,
    "street":"Шевченко",
    "house":"17"
  },
  {
    "id":1007,
    "street":"Шевченко",
    "house":"17а"
  },
  {
    "id":1008,
    "street":"Шевченко",
    "house":"18"
  },
  {
    "id":1009,
    "street":"Шевченко",
    "house":"19"
  },
  {
    "id":1010,
    "street":"Шевченко",
    "house":"19а"
  },
  {
    "id":1011,
    "street":"Шевченко",
    "house":"2"
  },
  {
    "id":1012,
    "street":"Шевченко",
    "house":"3"
  },
  {
    "id":1013,
    "street":"Шевченко",
    "house":"4а"
  },
  {
    "id":1014,
    "street":"Шевченко",
    "house":"40"
  },
  {
    "id":1015,
    "street":"Шевченко",
    "house":"42"
  },
  {
    "id":1016,
    "street":"Шевченко",
    "house":"44"
  },
  {
    "id":1017,
    "street":"Шевченко",
    "house":"47"
  },
  {
    "id":1018,
    "street":"Шевченко",
    "house":"48"
  },
  {
    "id":1019,
    "street":"Шевченко",
    "house":"49"
  },
  {
    "id":1020,
    "street":"Шевченко",
    "house":"50"
  },
  {
    "id":1021,
    "street":"Шевченко",
    "house":"52"
  },
  {
    "id":1022,
    "street":"Шевченко",
    "house":"53"
  },
  {
    "id":1023,
    "street":"Шевченко",
    "house":"54"
  },
  {
    "id":1024,
    "street":"Шевченко",
    "house":"55"
  },
  {
    "id":1025,
    "street":"Шевченко",
    "house":"56"
  },
  {
    "id":1026,
    "street":"Шевченко",
    "house":"57"
  },
  {
    "id":1027,
    "street":"Шевченко",
    "house":"58"
  },
  {
    "id":1028,
    "street":"Шевченко",
    "house":"59"
  },
  {
    "id":1029,
    "street":"Шевченко",
    "house":"6"
  },
  {
    "id":1030,
    "street":"Шевченко",
    "house":"6а"
  },
  {
    "id":1031,
    "street":"Шевченко",
    "house":"60"
  },
  {
    "id":1032,
    "street":"Шевченко",
    "house":"63"
  },
  {
    "id":1033,
    "street":"Шевченко",
    "house":"64"
  },
  {
    "id":1034,
    "street":"Шевченко",
    "house":"65"
  },
  {
    "id":1035,
    "street":"Шевченко",
    "house":"66"
  },
  {
    "id":1036,
    "street":"Шевченко",
    "house":"67"
  },
  {
    "id":1037,
    "street":"Шевченко",
    "house":"69"
  },
  {
    "id":1038,
    "street":"Шевченко",
    "house":"71"
  },
  {
    "id":1039,
    "street":"Шевченко",
    "house":"73"
  },
  {
    "id":1040,
    "street":"Шевченко",
    "house":"77"
  },
  {
    "id":1041,
    "street":"Шевченко",
    "house":"79"
  },
  {
    "id":1042,
    "street":"Шевченко",
    "house":"8"
  },
  {
    "id":1043,
    "street":"Шевченко",
    "house":"8а"
  },
  {
    "id":1044,
    "street":"Шевченко",
    "house":"80"
  },
  {
    "id":1045,
    "street":"Шевченко",
    "house":"81"
  },
  {
    "id":1046,
    "street":"Шевченко",
    "house":"82"
  },
  {
    "id":1047,
    "street":"Шевченко",
    "house":"83"
  },
  {
    "id":1048,
    "street":"Шевченко",
    "house":"85"
  },
  {
    "id":1049,
    "street":"Шевченко",
    "house":"86"
  },
  {
    "id":1050,
    "street":"Шевченко",
    "house":"87"
  },
  {
    "id":1051,
    "street":"Шевченко",
    "house":"88"
  },
  {
    "id":1052,
    "street":"Шевченко",
    "house":"89"
  },
  {
    "id":1053,
    "street":"Шевченко",
    "house":"90"
  },
  {
    "id":1054,
    "street":"Шевченко",
    "house":"91"
  },
  {
    "id":1055,
    "street":"Шевченко",
    "house":"92"
  },
  {
    "id":1056,
    "street":"Шевченко",
    "house":"95"
  },
  {
    "id":1057,
    "street":"Шевченко",
    "house":"96"
  },
  {
    "id":1058,
    "street":"Шевченко",
    "house":"97"
  },
  {
    "id":1059,
    "street":"Шевченко",
    "house":"98"
  },
  {
    "id":1060,
    "street":"Шевченко",
    "house":"98а"
  },
  {
    "id":1061,
    "street":"Шевченко",
    "house":"99"
  },
  {
    "id":1062,
    "street":"Шекспира",
    "house":"1"
  },
  {
    "id":1063,
    "street":"Шекспира",
    "house":"11"
  },
  {
    "id":1064,
    "street":"Шекспира",
    "house":"13"
  },
  {
    "id":1065,
    "street":"Шекспира",
    "house":"19"
  },
  {
    "id":1066,
    "street":"Шекспира",
    "house":"2"
  },
  {
    "id":1067,
    "street":"Шекспира",
    "house":"21"
  },
  {
    "id":1068,
    "street":"Шекспира",
    "house":"23"
  },
  {
    "id":1069,
    "street":"Шекспира",
    "house":"3"
  },
  {
    "id":1070,
    "street":"Шекспира",
    "house":"5"
  },
  {
    "id":1071,
    "street":"Шекспира",
    "house":"5а/7"
  },
  {
    "id":1072,
    "street":"Школьный",
    "house":"10"
  },
  {
    "id":1073,
    "street":"Школьный",
    "house":"11"
  },
  {
    "id":1074,
    "street":"Школьный",
    "house":"12"
  },
  {
    "id":1075,
    "street":"Школьный",
    "house":"13"
  },
  {
    "id":1076,
    "street":"Школьный",
    "house":"14"
  },
  {
    "id":1077,
    "street":"Школьный",
    "house":"16"
  },
  {
    "id":1078,
    "street":"Школьный",
    "house":"17"
  },
  {
    "id":1079,
    "street":"Школьный",
    "house":"18"
  },
  {
    "id":1080,
    "street":"Школьный",
    "house":"19"
  },
  {
    "id":1081,
    "street":"Школьный",
    "house":"20"
  },
  {
    "id":1082,
    "street":"Школьный",
    "house":"21"
  },
  {
    "id":1083,
    "street":"Школьный",
    "house":"22"
  },
  {
    "id":1084,
    "street":"Школьный",
    "house":"24а"
  },
  {
    "id":1085,
    "street":"Школьный",
    "house":"24б"
  },
  {
    "id":1086,
    "street":"Школьный",
    "house":"28"
  },
  {
    "id":1087,
    "street":"Школьный",
    "house":"4"
  },
  {
    "id":1088,
    "street":"Школьный",
    "house":"6"
  },
  {
    "id":1089,
    "street":"Школьный",
    "house":"7"
  },
  {
    "id":1090,
    "street":"Школьный",
    "house":"8"
  },
  {
    "id":1091,
    "street":"Школьный",
    "house":"9"
  },
  {
    "id":1092,
    "street":"Щорса",
    "house":"10а"
  },
  {
    "id":1093,
    "street":"Щорса",
    "house":"100"
  },
  {
    "id":1094,
    "street":"Щорса",
    "house":"106"
  },
  {
    "id":1095,
    "street":"Щорса",
    "house":"13"
  },
  {
    "id":1096,
    "street":"Щорса",
    "house":"14"
  },
  {
    "id":1097,
    "street":"Щорса",
    "house":"18"
  },
  {
    "id":1098,
    "street":"Щорса",
    "house":"18а"
  },
  {
    "id":1099,
    "street":"Щорса",
    "house":"2"
  },
  {
    "id":1100,
    "street":"Щорса",
    "house":"2а"
  },
  {
    "id":1101,
    "street":"Щорса",
    "house":"22"
  },
  {
    "id":1102,
    "street":"Щорса",
    "house":"23"
  },
  {
    "id":1103,
    "street":"Щорса",
    "house":"24"
  },
  {
    "id":1104,
    "street":"Щорса",
    "house":"25"
  },
  {
    "id":1105,
    "street":"Щорса",
    "house":"26а"
  },
  {
    "id":1106,
    "street":"Щорса",
    "house":"28"
  },
  {
    "id":1107,
    "street":"Щорса",
    "house":"29"
  },
  {
    "id":1108,
    "street":"Щорса",
    "house":"29а"
  },
  {
    "id":1109,
    "street":"Щорса",
    "house":"3"
  },
  {
    "id":1110,
    "street":"Щорса",
    "house":"33"
  },
  {
    "id":1111,
    "street":"Щорса",
    "house":"34а"
  },
  {
    "id":1112,
    "street":"Щорса",
    "house":"35"
  },
  {
    "id":1113,
    "street":"Щорса",
    "house":"36"
  },
  {
    "id":1114,
    "street":"Щорса",
    "house":"37"
  },
  {
    "id":1115,
    "street":"Щорса",
    "house":"37а"
  },
  {
    "id":1116,
    "street":"Щорса",
    "house":"4"
  },
  {
    "id":1117,
    "street":"Щорса",
    "house":"41"
  },
  {
    "id":1118,
    "street":"Щорса",
    "house":"41а"
  },
  {
    "id":1119,
    "street":"Щорса",
    "house":"42"
  },
  {
    "id":1120,
    "street":"Щорса",
    "house":"43"
  },
  {
    "id":1121,
    "street":"Щорса",
    "house":"45"
  },
  {
    "id":1122,
    "street":"Щорса",
    "house":"47б"
  },
  {
    "id":1123,
    "street":"Щорса",
    "house":"55"
  },
  {
    "id":1124,
    "street":"Щорса",
    "house":"57"
  },
  {
    "id":1125,
    "street":"Щорса",
    "house":"59"
  },
  {
    "id":1126,
    "street":"Щорса",
    "house":"61"
  },
  {
    "id":1127,
    "street":"Щорса",
    "house":"63"
  },
  {
    "id":1128,
    "street":"Щорса",
    "house":"65"
  },
  {
    "id":1129,
    "street":"Щорса",
    "house":"7"
  },
  {
    "id":1130,
    "street":"Щорса",
    "house":"71"
  },
  {
    "id":1131,
    "street":"Щорса",
    "house":"73"
  },
  {
    "id":1132,
    "street":"Щорса",
    "house":"80а"
  },
  {
    "id":1133,
    "street":"Щорса",
    "house":"81"
  },
  {
    "id":1134,
    "street":"Щорса",
    "house":"83"
  },
  {
    "id":1135,
    "street":"Щорса",
    "house":"86"
  },
  {
    "id":1136,
    "street":"Щорса",
    "house":"9"
  },
  {
    "id":1137,
    "street":"Щорса",
    "house":"94"
  },
  {
    "id":1138,
    "street":"Щорса",
    "house":"94а"
  },
  {
    "id":1139,
    "street":"Щорса",
    "house":"96"
  },
  {
    "id":1140,
    "street":"Щорса",
    "house":"96б"
  },
  {
    "id":1141,
    "street":"Щорса",
    "house":"98"
  },
  {
    "id":1142,
    "street":"25-летия РККА",
    "house":"11"
  },
  {
    "id":1143,
    "street":"25-летия РККА",
    "house":"12"
  },
  {
    "id":1144,
    "street":"25-летия РККА",
    "house":"13"
  },
  {
    "id":1145,
    "street":"25-летия РККА",
    "house":"14а"
  },
  {
    "id":1146,
    "street":"25-летия РККА",
    "house":"15"
  },
  {
    "id":1147,
    "street":"25-летия РККА",
    "house":"16"
  },
  {
    "id":1148,
    "street":"25-летия РККА",
    "house":"18"
  },
  {
    "id":1149,
    "street":"25-летия РККА",
    "house":"3"
  },
  {
    "id":1150,
    "street":"25-летия РККА",
    "house":"4а"
  },
  {
    "id":1151,
    "street":"25-летия РККА",
    "house":"5"
  },
  {
    "id":1152,
    "street":"25-летия РККА",
    "house":"6"
  },
  {
    "id":1153,
    "street":"25-летия РККА",
    "house":"6б"
  },
  {
    "id":1154,
    "street":"25-летия РККА",
    "house":"7"
  },
  {
    "id":1155,
    "street":"25-летия РККА",
    "house":"9"
  },
  {
    "id":1156,
    "street":"50-й Гвардейской Дивизии",
    "house":"10"
  },
  {
    "id":1157,
    "street":"50-й Гвардейской Дивизии",
    "house":"17"
  },
  {
    "id":1158,
    "street":"50-й Гвардейской Дивизии",
    "house":"19"
  },
  {
    "id":1159,
    "street":"50-й Гвардейской Дивизии",
    "house":"2"
  },
  {
    "id":1160,
    "street":"50-й Гвардейской Дивизии",
    "house":"20"
  },
  {
    "id":1161,
    "street":"50-й Гвардейской Дивизии",
    "house":"20а"
  },
  {
    "id":1162,
    "street":"50-й Гвардейской Дивизии",
    "house":"21"
  },
  {
    "id":1163,
    "street":"50-й Гвардейской Дивизии",
    "house":"22"
  },
  {
    "id":1164,
    "street":"50-й Гвардейской Дивизии",
    "house":"24"
  },
  {
    "id":1165,
    "street":"50-й Гвардейской Дивизии",
    "house":"6"
  },
  {
    "id":1166,
    "street":"50-й Гвардейской Дивизии",
    "house":"8"
  },
  {
    "id":1167,
    "street":"50-летия СССР",
    "house":"101"
  },
  {
    "id":1168,
    "street":"50-летия СССР",
    "house":"103"
  },
  {
    "id":1169,
    "street":"50-летия СССР",
    "house":"106"
  },
  {
    "id":1170,
    "street":"50-летия СССР",
    "house":"108"
  },
  {
    "id":1171,
    "street":"50-летия СССР",
    "house":"110"
  },
  {
    "id":1172,
    "street":"50-летия СССР",
    "house":"112"
  },
  {
    "id":1173,
    "street":"50-летия СССР",
    "house":"114"
  },
  {
    "id":1174,
    "street":"50-летия СССР",
    "house":"134"
  },
  {
    "id":1175,
    "street":"50-летия СССР",
    "house":"136"
  },
  {
    "id":1176,
    "street":"50-летия СССР",
    "house":"138"
  },
  {
    "id":1177,
    "street":"50-летия СССР",
    "house":"139"
  },
  {
    "id":1178,
    "street":"50-летия СССР",
    "house":"140"
  },
  {
    "id":1179,
    "street":"50-летия СССР",
    "house":"141"
  },
  {
    "id":1180,
    "street":"50-летия СССР",
    "house":"142"
  },
  {
    "id":1181,
    "street":"50-летия СССР",
    "house":"143б"
  },
  {
    "id":1182,
    "street":"50-летия СССР",
    "house":"144"
  },
  {
    "id":1183,
    "street":"50-летия СССР",
    "house":"144/2"
  },
  {
    "id":1184,
    "street":"50-летия СССР",
    "house":"144/4"
  },
  {
    "id":1185,
    "street":"50-летия СССР",
    "house":"147"
  },
  {
    "id":1186,
    "street":"50-летия СССР",
    "house":"148"
  },
  {
    "id":1187,
    "street":"50-летия СССР",
    "house":"150"
  },
  {
    "id":1188,
    "street":"50-летия СССР",
    "house":"151"
  },
  {
    "id":1189,
    "street":"50-летия СССР",
    "house":"153"
  },
  {
    "id":1190,
    "street":"50-летия СССР",
    "house":"155"
  },
  {
    "id":1191,
    "street":"50-летия СССР",
    "house":"158а"
  },
  {
    "id":1192,
    "street":"50-летия СССР",
    "house":"159"
  },
  {
    "id":1193,
    "street":"50-летия СССР",
    "house":"160"
  },
  {
    "id":1194,
    "street":"50-летия СССР",
    "house":"164"
  },
  {
    "id":1195,
    "street":"50-летия СССР",
    "house":"168"
  },
  {
    "id":1196,
    "street":"50-летия СССР",
    "house":"37"
  },
  {
    "id":1197,
    "street":"50-летия СССР",
    "house":"97"
  },
  {
    "id":1198,
    "street":"50-летия СССР",
    "house":"99"
  },
  {
    "id":1199,
    "street":"Бестужева",
    "house":"1"
  },
  {
    "id":1200,
    "street":"Бестужева",
    "house":"3"
  },
  {
    "id":1201,
    "street":"Бестужева",
    "house":"5"
  },
  {
    "id":1202,
    "street":"Бестужева",
    "house":"7"
  },
  {
    "id":1203,
    "street":"Бестужева",
    "house":"8"
  },
  {
    "id":1204,
    "street":"Ботаническая",
    "house":"5"
  },
  {
    "id":1205,
    "street":"Димитрова",
    "house":"1"
  },
  {
    "id":1206,
    "street":"Димитрова",
    "house":"2"
  },
  {
    "id":1207,
    "street":"Западная",
    "house":"1"
  },
  {
    "id":1208,
    "street":"Западная",
    "house":"78"
  },
  {
    "id":1209,
    "street":"Комарова",
    "house":"1"
  },
  {
    "id":1210,
    "street":"Комарова",
    "house":"3"
  },
  {
    "id":1211,
    "street":"Комарова",
    "house":"4"
  },
  {
    "id":1212,
    "street":"Комарова",
    "house":"5"
  },
  {
    "id":1213,
    "street":"Комарова",
    "house":"6"
  },
  {
    "id":1214,
    "street":"Комарова",
    "house":"7"
  },
  {
    "id":1215,
    "street":"Комарова",
    "house":"8"
  },
  {
    "id":1216,
    "street":"Малиновского",
    "house":"34"
  },
  {
    "id":1217,
    "street":"Малиновского",
    "house":"38"
  },
  {
    "id":1218,
    "street":"Малиновского",
    "house":"42"
  },
  {
    "id":1219,
    "street":"Малиновского",
    "house":"44"
  },
  {
    "id":1220,
    "street":"Малиновского",
    "house":"46"
  },
  {
    "id":1221,
    "street":"Малиновского",
    "house":"48"
  },
  {
    "id":1222,
    "street":"Малиновского",
    "house":"50"
  },
  {
    "id":1223,
    "street":"Пугачева",
    "house":"1"
  },
  {
    "id":1224,
    "street":"Пугачева",
    "house":"3"
  },
  {
    "id":1225,
    "street":"Пугачева",
    "house":"4"
  },
  {
    "id":1226,
    "street":"Пугачева",
    "house":"7"
  },
  {
    "id":1227,
    "street":"Черняховского",
    "house":"1"
  },
  {
    "id":1228,
    "street":"Черняховского",
    "house":"12"
  },
  {
    "id":1229,
    "street":"Черняховского",
    "house":"14"
  },
  {
    "id":1230,
    "street":"Черняховского",
    "house":"16"
  },
  {
    "id":1231,
    "street":"Черняховского",
    "house":"2а"
  },
  {
    "id":1232,
    "street":"Черняховского",
    "house":"26"
  },
  {
    "id":1233,
    "street":"Черняховского",
    "house":"28"
  },
  {
    "id":1234,
    "street":"Черняховского",
    "house":"30"
  },
  {
    "id":1235,
    "street":"Черняховского",
    "house":"32а"
  },
  {
    "id":1236,
    "street":"Черняховского",
    "house":"34"
  },
  {
    "id":1237,
    "street":"Черняховского",
    "house":"4"
  },
  {
    "id":1238,
    "street":"Черняховского",
    "house":"5"
  },
  {
    "id":1239,
    "street":"Черняховского",
    "house":"53"
  },
  {
    "id":1240,
    "street":"Чубаря",
    "house":"10"
  },
  {
    "id":1241,
    "street":"Чубаря",
    "house":"11"
  },
  {
    "id":1242,
    "street":"Чубаря",
    "house":"5"
  },
  {
    "id":1243,
    "street":"Чубаря",
    "house":"6"
  },
  {
    "id":1244,
    "street":"Чубаря",
    "house":"7"
  },
  {
    "id":1245,
    "street":"Чубаря",
    "house":"8"
  },
  {
    "id":1246,
    "street":"Чубаря",
    "house":"9"
  },
  {
    "id":1247,
    "street":"Чугаева",
    "house":"4"
  },
  {
    "id":1248,
    "street":"Чугаева",
    "house":"6"
  }
]